Students ids:
1. 204553507
2. 204609861
3. 315857177

Students names:
1. Lidor Hadjaj
2. Gal Tager
3. May Asulin

Operating system:
Windows10 - 64Bit ----- Compiled as X86!!!

Development enviroment:
Visual Studio 17
